{
  "count": 82,
  "next": "http://swapi.dev/api/people/?page=2",
  "previous": null,
  "results": [
    {
      "name": "Character 1",
      "height": "172",
      "mass": "77",
      "hair_color": "blond",
      "skin_color": "fair",
      "eye_color": "blue",
      "birth_year": "19BBY",
      "gender": "male",
      "homeworld": "http://swapi.dev/api/planets/1/",
      "films": [
        "http://swapi.dev/api/films/1/",
        "http://swapi.dev/api/films/2/",
        "http://swapi.dev/api/films/3/",
        "http://swapi.dev/api/films/6/"
      ],
      "species": [],
      "vehicles": [
        "http://swapi.dev/api/vehicles/14/",
        "http://swapi.dev/api/vehicles/30/"
      ],
      "starships": [
        "http://swapi.dev/api/starships/12/",
        "http://swapi.dev/api/starships/22/"
      ],
      "created": "2014-12-09T13:50:51.644000Z",
      "edited": "2014-12-20T21:17:56.891000Z",
      "url": "http://swapi.dev/api/people/1/"
    },
    {
      "name": "Character 2",
      "height": "202",
      "mass": "136",
      "hair_color": "none",
      "skin_color": "white",
      "eye_color": "yellow",
      "birth_year": "41.9BBY",
      "gender": "male",
      "homeworld": "http://swapi.dev/api/planets/1/",
      "films": [
        "http://swapi.dev/api/films/1/",
        "http://swapi.dev/api/films/2/",
        "http://swapi.dev/api/films/3/",
        "http://swapi.dev/api/films/6/"
      ],
      "species": [],
      "vehicles": [],
      "starships": [
        "http://swapi.dev/api/starships/13/"
      ],
      "created": "2014-12-10T15:18:20.704000Z",
      "edited": "2014-12-20T21:17:50.313000Z",
      "url": "http://swapi.dev/api/people/1/"
    },
    {
      "name": "Character 3",
      "height": "150",
      "mass": "49",
      "hair_color": "brown",
      "skin_color": "light",
      "eye_color": "brown",
      "birth_year": "19BBY",
      "gender": "female",
      "homeworld": "http://swapi.dev/api/planets/2/",
      "films": [
        "http://swapi.dev/api/films/1/",
        "http://swapi.dev/api/films/2/",
        "http://swapi.dev/api/films/3/",
        "http://swapi.dev/api/films/6/"
      ],
      "species": [],
      "vehicles": [
        "http://swapi.dev/api/vehicles/30/"
      ],
      "starships": [],
      "created": "2014-12-10T15:20:09.791000Z",
      "edited": "2014-12-20T21:17:50.315000Z",
      "url": "http://swapi.dev/api/people/1/"
    },
    {
      "name": "Character 4",
      "height": "178",
      "mass": "120",
      "hair_color": "brown, grey",
      "skin_color": "light",
      "eye_color": "blue",
      "birth_year": "52BBY",
      "gender": "male",
      "homeworld": "http://swapi.dev/api/planets/1/",
      "films": [
        "http://swapi.dev/api/films/1/",
        "http://swapi.dev/api/films/5/",
        "http://swapi.dev/api/films/6/"
      ],
      "species": [],
      "vehicles": [],
      "starships": [],
      "created": "2014-12-10T15:52:14.024000Z",
      "edited": "2014-12-20T21:17:50.317000Z",
      "url": "http://swapi.dev/api/people/1/"
    },
    {
      "name": "Character 5",
      "height": "165",
      "mass": "75",
      "hair_color": "brown",
      "skin_color": "light",
      "eye_color": "blue",
      "birth_year": "47BBY",
      "gender": "female",
      "homeworld": "http://swapi.dev/api/planets/1/",
      "films": [
        "http://swapi.dev/api/films/1/",
        "http://swapi.dev/api/films/5/",
        "http://swapi.dev/api/films/6/"
      ],
      "species": [],
      "vehicles": [],
      "starships": [],
      "created": "2014-12-10T15:53:41.121000Z",
      "edited": "2014-12-20T21:17:50.319000Z",
      "url": "http://swapi.dev/api/people/1/"
    }
  ]
}